"","slope","intercept","R-squared","F-statistic value","p-value"
"adlt..AB,F",33.0987246647544,2542.50380929219,0.132795821890007,12.8630019554008,0.000561879679057593
"adlt.ps.AO",4.86223410967459,1781.92810925732,0.0784205151286024,935.348840164216,3.2060784889946e-197
"a..CBGoMNE",20.9020831805066,235740.549468056,0.0814159630523919,6.20424172904769,0.0151192023605773
"adlt.ps.EM",2.10178811132542,167.83104888295,0.352890346819133,68.1666439923474,1.81489474211431e-13
"adl..E,CSe",12.9897337832027,791.833537668487,0.198903821461407,518.67690068236,9.78120093068276e-103
"adl..FPEEZ",-1.64593427582037,21176.9940663806,0.000156849803497244,0.294767014919689,0.587246178185151
"a..CSGoMNE",125.166807253085,107597.245781302,0.123951449844567,102.579704197178,1.22274146393267e-22
"a..GSBLINY",5.44632116641699,14.5631853115677,0.30716099416389,130.784341694212,2.58826202946318e-25
"ad..GoM,NE",-307.330062225959,276034.961408492,0.0222886889602978,1.80094717937862,0.18344240447847
"a..JLGoMNE",30.1139830084535,147760.021989524,0.00599117322338166,2.3325588012809,0.127510327789256
"adlt.ps.MA",5.54412287304514,64.6364734633913,0.157138567803634,13.6097287305854,0.000430350550393747
"adl..OtBoB",120.756555830182,88678.7053828189,0.202948633663864,90.6462451930184,2.70482591554995e-19
"a..SoMV,NE",1527.79318298831,80233.3407799923,0.0234252175985282,0.335819695828038,0.571460155763786
"a..SBGoMNE",62.6681856130385,192892.576380019,0.0372630193558566,19.5074689483581,1.2271984869739e-05
"adlt.pl.EM",49.6789473684212,2.36210526315787,0.00558551413718179,0.101103972134957,0.75416813649542
"adlt..FPEEZ",2.10495405767875,31783.8772343461,5.74318941536718e-06,0.000781078246370253,0.977744771607622
"adlt.pr.AO",1.93927702322049,1754.70401137526,0.00739698279115366,37.9163147692419,7.95138953988008e-10
"ed,ff,NwEd",53167.4559188799,284583.947865136,0.0125192342336428,0.177491334866636,0.679934652598592
"adlt.pr.EM",4.66995038979444,3.38884414664005,0.0409025332597782,9.2970240875913,0.00257932032982749
"..FhPnsnEEZ",-27.7274005595723,20575.8736834174,0.00329319005426941,6.57510126609144,0.0104143264276381
"tl,ff,NwEd",278951.451170416,90072.9795112694,0.302736098693012,9.55189872695552,0.00534097865226139
".GffM,NwEd",0,168000,NA,NA,NA
"s,ffM,NwEd",5912.66381392444,135526.299947429,0.000907868713857298,0.0318042790949625,0.859486156430835
"adlt.pr.MA",1.80462752228188,71.3783704109279,0.311915127341068,16.3191272333702,0.000268459148836844
"adlt..OtBoB",47.5990438892656,114065.246976831,0.048924030984617,24.2285783096911,1.18524246776343e-06
"hfMsV,NwEd",27001.0165568725,27747.5443777824,0.00200239560882036,0.0541731575309057,0.817709927366765
"n,ffM,NwEd",366539.322859749,162190.405558652,0.169391674753812,1.01968442649311,0.35893532018586
"adl./.AB,F",31.7855210639613,336.317401258103,0.454896466590064,46.7327774774965,6.45353839085833e-09
"ad./.CIS,F",8.93111353176893,541.926877522503,0.152725752974716,18.2057947643321,4.47776370543982e-05
"jvnl..AB,F",31.0032366469438,4602.36646169322,0.0567208571407711,1.62355242813778,0.213455733514303
"jvn..OtBoB",-1.96797521586126e-11,5559.99999999962,0.499991796105687,2976.90230962941,7.6945782289121e-17
"jvnl.ps.WG",6.53844144716838,0.093239037301215,0.573013216989562,25.4978644679396,7.11822392025366e-05
"jvnl.p.GoA",6557.37704918046,2.25196721311474,1,NA,NA
"..GffAlska",0.521625898429098,2.02429389845615,0.0204380820233481,0.855445018410001,0.360428527576408
"jvnl..OtBoB",-2.74768666340404e-14,5560.00000000005,0.499894657185999,599.747230501298,0.802766014693955
"jvnl..OB,W",20.0072558960934,0.29675463293898,0.12689726865344,190.832198503148,1.25359043318078e-40
"jvnl.pr.WG",0.0266888733441382,0.139484359020791,0.188875726963309,32.599938941375,6.5141019308835e-08
"lrv.pln.AP",303412.255984306,-0.175620190172289,0.221369106173468,90.1248681671541,5.62223327400241e-19
"lrv.pln.CS",215.612238352205,0.0040671263190023,0.104429094004287,50.9568966280062,3.9607589666264e-12
"lrv.plnk.G",0.0224934241833164,0.012841847290578,0.213201494276038,12.7357514764896,0.0008389808356283
"lrv.pl.WNP",3.52458142165181,0.00447145509455239,0.000139799313931178,0.0302008738705818,0.862197987783812
"l..AS(WoST",1509.12569565978,0.00267191819116117,0.187278301457234,7.37387183998773,0.0105792556844275
"lrv.prd.AP",26559.9921959298,0.139792754561369,0.584817618894892,1333.92530679971,5.83367592355081e-183
"lrv.pr.WNP",121.963410805906,0.0120752631739834,0.115812129314908,29.7327685960162,1.29102881334096e-07
"l/jvn..SoG",81.1591380069623,-3.45975627178894,0.621254577117463,49.2088780154159,8.51926669047012e-08
"l/jvnl..SoG",172.511898493461,9.86483143239672,0.232313578702393,2.72353678574574,0.133275952079355
"l/jvnl.p.SoG",100348.136755092,0.41201753189867,0.0281834521378093,3.42209376818833,0.0668312825188673
"l/j..NNSaS",12891.0179017009,-0.00894725357799645,0.679886964911185,40.3540340983879,4.28279187292489e-06
"a/..SrtfGrga",163.488716538756,1.5796281766769,0.125798764666407,66.7702405876136,2.92553502100992e-15
"pstlrv..AP",0.582050921513236,0.0382407206914082,0.605743142370175,47.6289430356757,9.72722953165703e-08
"..AcPnnsla",-0.00861452759101591,0.133502073567387,0.0105760559264123,0.748237314533598,0.389989666306616
"pstlr/..AP",NA,1.28,0,0.5,NA
"pstlrv/..AP",21012.870102476,0.153516129748767,0.0763315504427213,21.65156363799,5.19518130117455e-06
"/..AcPnnsla",1.7461898824416,0.565541752418578,0.046276154857748,28.5306686992787,1.32011188235226e-07
